{
  "id": {
    "href": "https://fsapi-test.uio.no/organisasjonsenheter/7,0,0,0",
    "institusjon": 7,
    "fakultet": 0,
    "institutt": 0,
    "gruppe": 0
  },
  "akronym": "BESSY",
  "aktiv": true,
  "felles": false,
  "institusjonsinformasjon": {
    "bynavn": "Berlin",
    "godkjentBetalingssted": false,
    "institusjonstypekode": "FORSKINST"
  },
  "land": {
    "href": "https://fsapi-test.uio.no/land/144"
  },
  "lms": {
    "eksport": true
  },
  "navn": [
    {
      "lang": "nb",
      "value": "Berliner Elektronenspeicherring - Gesellschaft für Synchrotronstrahlung m.b.H."
    }
  ],
  "nsdInstitusjonskode": 0,
  "organisasjonsenheter": [
    {
      "href": "https://fsapi-test.uio.no/organisasjonsenheter/7,0,0,0",
      "type": "OVERORDNET"
    }
  ],
  "organisasjonsnivakode": "ENH",
  "organisasjonsnivanavn": "Enhet / institusjon",
  "organisasjonsnummer": 0,
  "stemmerettsted": false,
  "urler": [
    {
      "url": "http://www.bessy.de/"
    }
  ]
}
